[
    {
        "id": 58057153,
        "id_str": "58057153",
        "name": "𝓒𝓪𝓻𝓸𝓵 𝓓𝓾𝓻𝓪𝓷 🎀",
        "screen_name": "Carol83607",
        "location": "📍 España 🇪🇸",
        "description": "Me gusta conocer gente nueva, sigueme si quieres que te envie mis fotitos...",
        "url": null,
        "entities": {
            "description": {
                "urls": []
            }
        },
        "protected": false,
        "followers_count": 27,
        "friends_count": 343,
        "listed_count": 0,
        "created_at": "Sat Jul 18 23:07:40 +0000 2009",
        "favourites_count": 399,
        "utc_offset": null,
        "time_zone": null,
        "geo_enabled": false,
        "verified": false,
        "statuses_count": 65,
        "lang": null,
        "status": {
            "created_at": "Tue Feb 16 07:06:06 +0000 2021",
            "id": 1361572547490414593,
            "id_str": "1361572547490414593",
            "text": "M U A C K!!! 💋 https://t.co/mFMjPnf1Ah",
            "truncated": false,
            "entities": {
                "hashtags": [],
                "symbols": [],
                "user_mentions": [],
                "urls": [],
                "media": [
                    {
                        "id": 1361572501302706178,
                        "id_str": "1361572501302706178",
                        "indices": [
                            15,
                            38
                        ],
                        "media_url": "http://pbs.twimg.com/media/EuVG-dwWgAIvUQC.jpg",
                        "media_url_https": "https://pbs.twimg.com/media/EuVG-dwWgAIvUQC.jpg",
                        "url": "https://t.co/mFMjPnf1Ah",
                        "display_url": "pic.twitter.com/mFMjPnf1Ah",
                        "expanded_url": "https://twitter.com/keenrivera/status/1361572547490414593/photo/1",
                        "type": "photo",
                        "sizes": {
                            "thumb": {
                                "w": 150,
                                "h": 150,
                                "resize": "crop"
                            },
                            "small": {
                                "w": 502,
                                "h": 680,
                                "resize": "fit"
                            },
                            "large": {
                                "w": 766,
                                "h": 1038,
                                "resize": "fit"
                            },
                            "medium": {
                                "w": 766,
                                "h": 1038,
                                "resize": "fit"
                            }
                        }
                    }
                ]
            },
            "extended_entities": {
                "media": [
                    {
                        "id": 1361572501302706178,
                        "id_str": "1361572501302706178",
                        "indices": [
                            15,
                            38
                        ],
                        "media_url": "http://pbs.twimg.com/media/EuVG-dwWgAIvUQC.jpg",
                        "media_url_https": "https://pbs.twimg.com/media/EuVG-dwWgAIvUQC.jpg",
                        "url": "https://t.co/mFMjPnf1Ah",
                        "display_url": "pic.twitter.com/mFMjPnf1Ah",
                        "expanded_url": "https://twitter.com/keenrivera/status/1361572547490414593/photo/1",
                        "type": "photo",
                        "sizes": {
                            "thumb": {
                                "w": 150,
                                "h": 150,
                                "resize": "crop"
                            },
                            "small": {
                                "w": 502,
                                "h": 680,
                                "resize": "fit"
                            },
                            "large": {
                                "w": 766,
                                "h": 1038,
                                "resize": "fit"
                            },
                            "medium": {
                                "w": 766,
                                "h": 1038,
                                "resize": "fit"
                            }
                        }
                    }
                ]
            },
            "source": "<a href=\"https://mobile.twitter.com\" rel=\"nofollow\">Twitter Web App</a>",
            "in_reply_to_status_id": null,
            "in_reply_to_status_id_str": null,
            "in_reply_to_user_id": null,
            "in_reply_to_user_id_str": null,
            "in_reply_to_screen_name": null,
            "geo": null,
            "coordinates": null,
            "place": null,
            "contributors": null,
            "is_quote_status": false,
            "retweet_count": 0,
            "favorite_count": 0,
            "favorited": false,
            "retweeted": false,
            "possibly_sensitive": false,
            "lang": "in"
        },
        "contributors_enabled": false,
        "is_translator": false,
        "is_translation_enabled": false,
        "profile_background_color": "C0DEED",
        "profile_background_image_url": "http://abs.twimg.com/images/themes/theme1/bg.png",
        "profile_background_image_url_https": "https://abs.twimg.com/images/themes/theme1/bg.png",
        "profile_background_tile": false,
        "profile_image_url": "http://pbs.twimg.com/profile_images/1361572588758122500/CqfOwiqK_normal.jpg",
        "profile_image_url_https": "https://pbs.twimg.com/profile_images/1361572588758122500/CqfOwiqK_normal.jpg",
        "profile_banner_url": "https://pbs.twimg.com/profile_banners/58057153/1613459181",
        "profile_link_color": "1DA1F2",
        "profile_sidebar_border_color": "C0DEED",
        "profile_sidebar_fill_color": "DDEEF6",
        "profile_text_color": "333333",
        "profile_use_background_image": true,
        "has_extended_profile": true,
        "default_profile": true,
        "default_profile_image": false,
        "following": null,
        "follow_request_sent": null,
        "notifications": null,
        "translator_type": "none"
    },
    {
        "id": 999053627556859904,
        "id_str": "999053627556859904",
        "name": "Aaron J. Morales Botton",
        "screen_name": "aaronmbdev",
        "location": "Barcelona, España",
        "description": "I turn pizza and caffeine into cool software. Computer Science student, IB Alumni and part time drummer 🖥️🥁",
        "url": "https://t.co/UPMQDTmwcR",
        "entities": {
            "url": {
                "urls": [
                    {
                        "url": "https://t.co/UPMQDTmwcR",
                        "expanded_url": "http://aarondev.tech",
                        "display_url": "aarondev.tech",
                        "indices": [
                            0,
                            23
                        ]
                    }
                ]
            },
            "description": {
                "urls": []
            }
        },
        "protected": true,
        "followers_count": 12,
        "friends_count": 110,
        "listed_count": 0,
        "created_at": "Tue May 22 22:25:21 +0000 2018",
        "favourites_count": 136,
        "utc_offset": null,
        "time_zone": null,
        "geo_enabled": false,
        "verified": false,
        "statuses_count": 363,
        "lang": null,
        "contributors_enabled": false,
        "is_translator": false,
        "is_translation_enabled": false,
        "profile_background_color": "000000",
        "profile_background_image_url": "http://abs.twimg.com/images/themes/theme1/bg.png",
        "profile_background_image_url_https": "https://abs.twimg.com/images/themes/theme1/bg.png",
        "profile_background_tile": false,
        "profile_image_url": "http://pbs.twimg.com/profile_images/999054740678889472/KpO4Vl5a_normal.jpg",
        "profile_image_url_https": "https://pbs.twimg.com/profile_images/999054740678889472/KpO4Vl5a_normal.jpg",
        "profile_banner_url": "https://pbs.twimg.com/profile_banners/999053627556859904/1527028272",
        "profile_link_color": "1B95E0",
        "profile_sidebar_border_color": "000000",
        "profile_sidebar_fill_color": "000000",
        "profile_text_color": "000000",
        "profile_use_background_image": false,
        "has_extended_profile": true,
        "default_profile": false,
        "default_profile_image": false,
        "following": null,
        "follow_request_sent": null,
        "notifications": null,
        "translator_type": "none"
    },
    {
        "id": 550185443,
        "id_str": "550185443",
        "name": "🅾🅻🅸🆅🅸🅰 🅱🆁🅾🆆🅽 👙",
        "screen_name": "Olivia_96274",
        "location": "📍 USA 🇺🇸",
        "description": "I love meeting new people. Follow me,I´ll send you all the pictures you want.  💝😚👙",
        "url": null,
        "entities": {
            "description": {
                "urls": []
            }
        },
        "protected": false,
        "followers_count": 51,
        "friends_count": 1390,
        "listed_count": 0,
        "created_at": "Tue Apr 10 15:09:41 +0000 2012",
        "favourites_count": 989,
        "utc_offset": null,
        "time_zone": null,
        "geo_enabled": false,
        "verified": false,
        "statuses_count": 100,
        "lang": null,
        "status": {
            "created_at": "Mon Dec 14 04:54:31 +0000 2020",
            "id": 1338346609730588673,
            "id_str": "1338346609730588673",
            "text": "Follow The Path Your Heart Leads You On. 🍓😚 https://t.co/HWrzkUbr4P",
            "truncated": false,
            "entities": {
                "hashtags": [],
                "symbols": [],
                "user_mentions": [],
                "urls": [],
                "media": [
                    {
                        "id": 1338346596795371520,
                        "id_str": "1338346596795371520",
                        "indices": [
                            44,
                            67
                        ],
                        "media_url": "http://pbs.twimg.com/media/EpLDI5BXUAA_51n.jpg",
                        "media_url_https": "https://pbs.twimg.com/media/EpLDI5BXUAA_51n.jpg",
                        "url": "https://t.co/HWrzkUbr4P",
                        "display_url": "pic.twitter.com/HWrzkUbr4P",
                        "expanded_url": "https://twitter.com/bisutambre/status/1338346609730588673/photo/1",
                        "type": "photo",
                        "sizes": {
                            "thumb": {
                                "w": 150,
                                "h": 150,
                                "resize": "crop"
                            },
                            "medium": {
                                "w": 918,
                                "h": 950,
                                "resize": "fit"
                            },
                            "large": {
                                "w": 918,
                                "h": 950,
                                "resize": "fit"
                            },
                            "small": {
                                "w": 657,
                                "h": 680,
                                "resize": "fit"
                            }
                        }
                    }
                ]
            },
            "extended_entities": {
                "media": [
                    {
                        "id": 1338346596795371520,
                        "id_str": "1338346596795371520",
                        "indices": [
                            44,
                            67
                        ],
                        "media_url": "http://pbs.twimg.com/media/EpLDI5BXUAA_51n.jpg",
                        "media_url_https": "https://pbs.twimg.com/media/EpLDI5BXUAA_51n.jpg",
                        "url": "https://t.co/HWrzkUbr4P",
                        "display_url": "pic.twitter.com/HWrzkUbr4P",
                        "expanded_url": "https://twitter.com/bisutambre/status/1338346609730588673/photo/1",
                        "type": "photo",
                        "sizes": {
                            "thumb": {
                                "w": 150,
                                "h": 150,
                                "resize": "crop"
                            },
                            "medium": {
                                "w": 918,
                                "h": 950,
                                "resize": "fit"
                            },
                            "large": {
                                "w": 918,
                                "h": 950,
                                "resize": "fit"
                            },
                            "small": {
                                "w": 657,
                                "h": 680,
                                "resize": "fit"
                            }
                        }
                    }
                ]
            },
            "source": "<a href=\"https://mobile.twitter.com\" rel=\"nofollow\">Twitter Web App</a>",
            "in_reply_to_status_id": null,
            "in_reply_to_status_id_str": null,
            "in_reply_to_user_id": null,
            "in_reply_to_user_id_str": null,
            "in_reply_to_screen_name": null,
            "geo": null,
            "coordinates": null,
            "place": null,
            "contributors": null,
            "is_quote_status": false,
            "retweet_count": 0,
            "favorite_count": 2,
            "favorited": false,
            "retweeted": false,
            "possibly_sensitive": false,
            "lang": "en"
        },
        "contributors_enabled": false,
        "is_translator": false,
        "is_translation_enabled": false,
        "profile_background_color": "C0DEED",
        "profile_background_image_url": "http://abs.twimg.com/images/themes/theme1/bg.png",
        "profile_background_image_url_https": "https://abs.twimg.com/images/themes/theme1/bg.png",
        "profile_background_tile": false,
        "profile_image_url": "http://pbs.twimg.com/profile_images/1338346618920316930/J87ONxZi_normal.jpg",
        "profile_image_url_https": "https://pbs.twimg.com/profile_images/1338346618920316930/J87ONxZi_normal.jpg",
        "profile_banner_url": "https://pbs.twimg.com/profile_banners/550185443/1607921677",
        "profile_link_color": "1DA1F2",
        "profile_sidebar_border_color": "C0DEED",
        "profile_sidebar_fill_color": "DDEEF6",
        "profile_text_color": "333333",
        "profile_use_background_image": true,
        "has_extended_profile": false,
        "default_profile": true,
        "default_profile_image": false,
        "following": null,
        "follow_request_sent": null,
        "notifications": null,
        "translator_type": "none"
    },
    {
        "id": 1268061692,
        "id_str": "1268061692",
        "name": "🅻🅴🅾🅽🅾🆁 🅼🅾🆁🅰 🍑",
        "screen_name": "Leonor_97150",
        "location": "📍 Spain 🇪🇸",
        "description": "Me gustaria conocer gente nueva, sigueme y te enviare mis fotitos ... 👅💘💋",
        "url": null,
        "entities": {
            "description": {
                "urls": []
            }
        },
        "protected": false,
        "followers_count": 44,
        "friends_count": 2223,
        "listed_count": 0,
        "created_at": "Thu Mar 14 21:37:28 +0000 2013",
        "favourites_count": 964,
        "utc_offset": null,
        "time_zone": null,
        "geo_enabled": false,
        "verified": false,
        "statuses_count": 31,
        "lang": null,
        "status": {
            "created_at": "Sat Oct 17 02:41:59 +0000 2020",
            "id": 1317294757928984576,
            "id_str": "1317294757928984576",
            "text": "\"No se trata sólo de belleza,creerme,ciudades bonitas hay muchas,pero sólo hay un pasaje con el que soñamos volver\"… https://t.co/PeXYBQMJBU",
            "truncated": true,
            "entities": {
                "hashtags": [],
                "symbols": [],
                "user_mentions": [],
                "urls": [
                    {
                        "url": "https://t.co/PeXYBQMJBU",
                        "expanded_url": "https://twitter.com/i/web/status/1317294757928984576",
                        "display_url": "twitter.com/i/web/status/1…",
                        "indices": [
                            117,
                            140
                        ]
                    }
                ]
            },
            "source": "<a href=\"https://mobile.twitter.com\" rel=\"nofollow\">Twitter Web App</a>",
            "in_reply_to_status_id": null,
            "in_reply_to_status_id_str": null,
            "in_reply_to_user_id": null,
            "in_reply_to_user_id_str": null,
            "in_reply_to_screen_name": null,
            "geo": null,
            "coordinates": null,
            "place": null,
            "contributors": null,
            "is_quote_status": false,
            "retweet_count": 0,
            "favorite_count": 1,
            "favorited": false,
            "retweeted": false,
            "possibly_sensitive": false,
            "lang": "es"
        },
        "contributors_enabled": false,
        "is_translator": false,
        "is_translation_enabled": false,
        "profile_background_color": "C0DEED",
        "profile_background_image_url": "http://abs.twimg.com/images/themes/theme1/bg.png",
        "profile_background_image_url_https": "https://abs.twimg.com/images/themes/theme1/bg.png",
        "profile_background_tile": false,
        "profile_image_url": "http://pbs.twimg.com/profile_images/1317294764358860800/hEj3QHLG_normal.jpg",
        "profile_image_url_https": "https://pbs.twimg.com/profile_images/1317294764358860800/hEj3QHLG_normal.jpg",
        "profile_banner_url": "https://pbs.twimg.com/profile_banners/1268061692/1602902523",
        "profile_link_color": "1DA1F2",
        "profile_sidebar_border_color": "C0DEED",
        "profile_sidebar_fill_color": "DDEEF6",
        "profile_text_color": "333333",
        "profile_use_background_image": true,
        "has_extended_profile": false,
        "default_profile": true,
        "default_profile_image": false,
        "following": null,
        "follow_request_sent": null,
        "notifications": null,
        "translator_type": "none"
    },
    {
        "id": 1105868886703042566,
        "id_str": "1105868886703042566",
        "name": "AsyncAPI Initiative",
        "screen_name": "AsyncAPISpec",
        "location": "",
        "description": "AsyncAPI is an initiative for standardizing message-driven APIs.",
        "url": "https://t.co/nel9RZxknk",
        "entities": {
            "url": {
                "urls": [
                    {
                        "url": "https://t.co/nel9RZxknk",
                        "expanded_url": "http://www.asyncapi.com",
                        "display_url": "asyncapi.com",
                        "indices": [
                            0,
                            23
                        ]
                    }
                ]
            },
            "description": {
                "urls": []
            }
        },
        "protected": false,
        "followers_count": 1659,
        "friends_count": 1462,
        "listed_count": 32,
        "created_at": "Wed Mar 13 16:31:03 +0000 2019",
        "favourites_count": 1330,
        "utc_offset": null,
        "time_zone": null,
        "geo_enabled": false,
        "verified": false,
        "statuses_count": 1478,
        "lang": null,
        "status": {
            "created_at": "Thu Mar 04 08:34:07 +0000 2021",
            "id": 1367392901047681024,
            "id_str": "1367392901047681024",
            "text": "RT @apievangelist: I &lt;3 @AsyncAPISpec road map in substance and presentation. https://t.co/cCinHa7HoZ https://t.co/KFpMxLYwzP",
            "truncated": false,
            "entities": {
                "hashtags": [],
                "symbols": [],
                "user_mentions": [
                    {
                        "screen_name": "apievangelist",
                        "name": "API Evangelist",
                        "id": 601369792,
                        "id_str": "601369792",
                        "indices": [
                            3,
                            17
                        ]
                    },
                    {
                        "screen_name": "AsyncAPISpec",
                        "name": "AsyncAPI Initiative",
                        "id": 1105868886703042566,
                        "id_str": "1105868886703042566",
                        "indices": [
                            27,
                            40
                        ]
                    }
                ],
                "urls": [
                    {
                        "url": "https://t.co/cCinHa7HoZ",
                        "expanded_url": "https://deploy-preview-189--asyncapi-website.netlify.app/roadmap",
                        "display_url": "…iew-189--asyncapi-website.netlify.app/roadmap",
                        "indices": [
                            81,
                            104
                        ]
                    }
                ],
                "media": [
                    {
                        "id": 1367187829013442561,
                        "id_str": "1367187829013442561",
                        "indices": [
                            105,
                            128
                        ],
                        "media_url": "http://pbs.twimg.com/media/Evk6FjmVcAEZt7H.jpg",
                        "media_url_https": "https://pbs.twimg.com/media/Evk6FjmVcAEZt7H.jpg",
                        "url": "https://t.co/KFpMxLYwzP",
                        "display_url": "pic.twitter.com/KFpMxLYwzP",
                        "expanded_url": "https://twitter.com/apievangelist/status/1367187836533833730/photo/1",
                        "type": "photo",
                        "sizes": {
                            "thumb": {
                                "w": 150,
                                "h": 150,
                                "resize": "crop"
                            },
                            "large": {
                                "w": 2048,
                                "h": 1167,
                                "resize": "fit"
                            },
                            "medium": {
                                "w": 1200,
                                "h": 684,
                                "resize": "fit"
                            },
                            "small": {
                                "w": 680,
                                "h": 388,
                                "resize": "fit"
                            }
                        },
                        "source_status_id": 1367187836533833730,
                        "source_status_id_str": "1367187836533833730",
                        "source_user_id": 601369792,
                        "source_user_id_str": "601369792"
                    }
                ]
            },
            "extended_entities": {
                "media": [
                    {
                        "id": 1367187829013442561,
                        "id_str": "1367187829013442561",
                        "indices": [
                            105,
                            128
                        ],
                        "media_url": "http://pbs.twimg.com/media/Evk6FjmVcAEZt7H.jpg",
                        "media_url_https": "https://pbs.twimg.com/media/Evk6FjmVcAEZt7H.jpg",
                        "url": "https://t.co/KFpMxLYwzP",
                        "display_url": "pic.twitter.com/KFpMxLYwzP",
                        "expanded_url": "https://twitter.com/apievangelist/status/1367187836533833730/photo/1",
                        "type": "photo",
                        "sizes": {
                            "thumb": {
                                "w": 150,
                                "h": 150,
                                "resize": "crop"
                            },
                            "large": {
                                "w": 2048,
                                "h": 1167,
                                "resize": "fit"
                            },
                            "medium": {
                                "w": 1200,
                                "h": 684,
                                "resize": "fit"
                            },
                            "small": {
                                "w": 680,
                                "h": 388,
                                "resize": "fit"
                            }
                        },
                        "source_status_id": 1367187836533833730,
                        "source_status_id_str": "1367187836533833730",
                        "source_user_id": 601369792,
                        "source_user_id_str": "601369792"
                    }
                ]
            },
            "source": "<a href=\"https://mobile.twitter.com\" rel=\"nofollow\">Twitter Web App</a>",
            "in_reply_to_status_id": null,
            "in_reply_to_status_id_str": null,
            "in_reply_to_user_id": null,
            "in_reply_to_user_id_str": null,
            "in_reply_to_screen_name": null,
            "geo": null,
            "coordinates": null,
            "place": null,
            "contributors": null,
            "retweeted_status": {
                "created_at": "Wed Mar 03 18:59:16 +0000 2021",
                "id": 1367187836533833730,
                "id_str": "1367187836533833730",
                "text": "I &lt;3 @AsyncAPISpec road map in substance and presentation. https://t.co/cCinHa7HoZ https://t.co/KFpMxLYwzP",
                "truncated": false,
                "entities": {
                    "hashtags": [],
                    "symbols": [],
                    "user_mentions": [
                        {
                            "screen_name": "AsyncAPISpec",
                            "name": "AsyncAPI Initiative",
                            "id": 1105868886703042566,
                            "id_str": "1105868886703042566",
                            "indices": [
                                8,
                                21
                            ]
                        }
                    ],
                    "urls": [
                        {
                            "url": "https://t.co/cCinHa7HoZ",
                            "expanded_url": "https://deploy-preview-189--asyncapi-website.netlify.app/roadmap",
                            "display_url": "…iew-189--asyncapi-website.netlify.app/roadmap",
                            "indices": [
                                62,
                                85
                            ]
                        }
                    ],
                    "media": [
                        {
                            "id": 1367187829013442561,
                            "id_str": "1367187829013442561",
                            "indices": [
                                86,
                                109
                            ],
                            "media_url": "http://pbs.twimg.com/media/Evk6FjmVcAEZt7H.jpg",
                            "media_url_https": "https://pbs.twimg.com/media/Evk6FjmVcAEZt7H.jpg",
                            "url": "https://t.co/KFpMxLYwzP",
                            "display_url": "pic.twitter.com/KFpMxLYwzP",
                            "expanded_url": "https://twitter.com/apievangelist/status/1367187836533833730/photo/1",
                            "type": "photo",
                            "sizes": {
                                "thumb": {
                                    "w": 150,
                                    "h": 150,
                                    "resize": "crop"
                                },
                                "large": {
                                    "w": 2048,
                                    "h": 1167,
                                    "resize": "fit"
                                },
                                "medium": {
                                    "w": 1200,
                                    "h": 684,
                                    "resize": "fit"
                                },
                                "small": {
                                    "w": 680,
                                    "h": 388,
                                    "resize": "fit"
                                }
                            }
                        }
                    ]
                },
                "extended_entities": {
                    "media": [
                        {
                            "id": 1367187829013442561,
                            "id_str": "1367187829013442561",
                            "indices": [
                                86,
                                109
                            ],
                            "media_url": "http://pbs.twimg.com/media/Evk6FjmVcAEZt7H.jpg",
                            "media_url_https": "https://pbs.twimg.com/media/Evk6FjmVcAEZt7H.jpg",
                            "url": "https://t.co/KFpMxLYwzP",
                            "display_url": "pic.twitter.com/KFpMxLYwzP",
                            "expanded_url": "https://twitter.com/apievangelist/status/1367187836533833730/photo/1",
                            "type": "photo",
                            "sizes": {
                                "thumb": {
                                    "w": 150,
                                    "h": 150,
                                    "resize": "crop"
                                },
                                "large": {
                                    "w": 2048,
                                    "h": 1167,
                                    "resize": "fit"
                                },
                                "medium": {
                                    "w": 1200,
                                    "h": 684,
                                    "resize": "fit"
                                },
                                "small": {
                                    "w": 680,
                                    "h": 388,
                                    "resize": "fit"
                                }
                            }
                        }
                    ]
                },
                "source": "<a href=\"https://about.twitter.com/products/tweetdeck\" rel=\"nofollow\">TweetDeck</a>",
                "in_reply_to_status_id": null,
                "in_reply_to_status_id_str": null,
                "in_reply_to_user_id": null,
                "in_reply_to_user_id_str": null,
                "in_reply_to_screen_name": null,
                "geo": null,
                "coordinates": null,
                "place": null,
                "contributors": null,
                "is_quote_status": false,
                "retweet_count": 2,
                "favorite_count": 5,
                "favorited": false,
                "retweeted": false,
                "possibly_sensitive": false,
                "lang": "en"
            },
            "is_quote_status": false,
            "retweet_count": 2,
            "favorite_count": 0,
            "favorited": false,
            "retweeted": false,
            "possibly_sensitive": false,
            "lang": "en"
        },
        "contributors_enabled": false,
        "is_translator": false,
        "is_translation_enabled": false,
        "profile_background_color": "F5F8FA",
        "profile_background_image_url": null,
        "profile_background_image_url_https": null,
        "profile_background_tile": false,
        "profile_image_url": "http://pbs.twimg.com/profile_images/1336579905602138113/GsD0gBgC_normal.jpg",
        "profile_image_url_https": "https://pbs.twimg.com/profile_images/1336579905602138113/GsD0gBgC_normal.jpg",
        "profile_banner_url": "https://pbs.twimg.com/profile_banners/1105868886703042566/1572872768",
        "profile_link_color": "1DA1F2",
        "profile_sidebar_border_color": "C0DEED",
        "profile_sidebar_fill_color": "DDEEF6",
        "profile_text_color": "333333",
        "profile_use_background_image": true,
        "has_extended_profile": false,
        "default_profile": true,
        "default_profile_image": false,
        "following": null,
        "follow_request_sent": null,
        "notifications": null,
        "translator_type": "none"
    }
]
